<?xml version="1.0" encoding="UTF-8"?>
<!-- Do not edit this file with editors other than draw.io -->
<!DOCTYPE svg PUBLIC "-//W3C//DTD SVG 1.1//EN" "http://www.w3.org/Graphics/SVG/1.1/DTD/svg11.dtd">
<svg xmlns="http://www.w3.org/2000/svg" xmlns:xlink="http://www.w3.org/1999/xlink" version="1.1" width="679px" height="272px" viewBox="-0.5 -0.5 679 272" content="&lt;mxfile host=&quot;app.diagrams.net&quot; modified=&quot;2024-06-19T13:11:11.478Z&quot; agent=&quot;Mozilla/5.0 (Windows NT 10.0; Win64; x64; rv:127.0) Gecko/20100101 Firefox/127.0&quot; etag=&quot;T5R9J9Wqad70YA1khoji&quot; version=&quot;24.5.5&quot; type=&quot;device&quot;&gt;&#xA;  &lt;diagram name=&quot;Page-1&quot; id=&quot;T_4PvN6B-o52zXsbPNEz&quot;&gt;&#xA;    &lt;mxGraphModel dx=&quot;1050&quot; dy=&quot;576&quot; grid=&quot;1&quot; gridSize=&quot;10&quot; guides=&quot;1&quot; tooltips=&quot;1&quot; connect=&quot;1&quot; arrows=&quot;1&quot; fold=&quot;1&quot; page=&quot;1&quot; pageScale=&quot;1&quot; pageWidth=&quot;827&quot; pageHeight=&quot;1169&quot; math=&quot;0&quot; shadow=&quot;0&quot;&gt;&#xA;      &lt;root&gt;&#xA;        &lt;mxCell id=&quot;0&quot; /&gt;&#xA;        &lt;mxCell id=&quot;1&quot; parent=&quot;0&quot; /&gt;&#xA;        &lt;mxCell id=&quot;u_bbBp1pnYFl_PV7gy-b-3&quot; value=&quot;Elu&quot; style=&quot;rounded=1;whiteSpace=wrap;html=1;fontFamily=Courier New;fontSize=22;strokeWidth=3;fillColor=#dae8fc;strokeColor=#6c8ebf;&quot; vertex=&quot;1&quot; parent=&quot;1&quot;&gt;&#xA;          &lt;mxGeometry x=&quot;520&quot; y=&quot;240&quot; width=&quot;120&quot; height=&quot;60&quot; as=&quot;geometry&quot; /&gt;&#xA;        &lt;/mxCell&gt;&#xA;        &lt;mxCell id=&quot;u_bbBp1pnYFl_PV7gy-b-4&quot; value=&quot;Prêt&quot; style=&quot;rounded=1;whiteSpace=wrap;html=1;fontFamily=Courier New;fontSize=22;strokeWidth=3;fillColor=#dae8fc;strokeColor=#6c8ebf;&quot; vertex=&quot;1&quot; parent=&quot;1&quot;&gt;&#xA;          &lt;mxGeometry x=&quot;200&quot; y=&quot;240&quot; width=&quot;120&quot; height=&quot;60&quot; as=&quot;geometry&quot; /&gt;&#xA;        &lt;/mxCell&gt;&#xA;        &lt;mxCell id=&quot;u_bbBp1pnYFl_PV7gy-b-5&quot; value=&quot;Bloqué&quot; style=&quot;rounded=1;whiteSpace=wrap;html=1;fontFamily=Courier New;fontSize=22;strokeWidth=3;fillColor=#dae8fc;strokeColor=#6c8ebf;&quot; vertex=&quot;1&quot; parent=&quot;1&quot;&gt;&#xA;          &lt;mxGeometry x=&quot;360&quot; y=&quot;380&quot; width=&quot;120&quot; height=&quot;60&quot; as=&quot;geometry&quot; /&gt;&#xA;        &lt;/mxCell&gt;&#xA;        &lt;mxCell id=&quot;u_bbBp1pnYFl_PV7gy-b-8&quot; value=&quot;&quot; style=&quot;shape=flexArrow;endArrow=classic;html=1;rounded=0;exitX=1;exitY=1;exitDx=0;exitDy=0;entryX=0;entryY=0;entryDx=0;entryDy=0;endSize=7;startSize=6;fillColor=#fff2cc;strokeColor=#d6b656;&quot; edge=&quot;1&quot; parent=&quot;1&quot; target=&quot;u_bbBp1pnYFl_PV7gy-b-4&quot;&gt;&#xA;          &lt;mxGeometry width=&quot;50&quot; height=&quot;50&quot; relative=&quot;1&quot; as=&quot;geometry&quot;&gt;&#xA;            &lt;mxPoint x=&quot;160&quot; y=&quot;200&quot; as=&quot;sourcePoint&quot; /&gt;&#xA;            &lt;mxPoint x=&quot;510&quot; y=&quot;350&quot; as=&quot;targetPoint&quot; /&gt;&#xA;          &lt;/mxGeometry&gt;&#xA;        &lt;/mxCell&gt;&#xA;        &lt;mxCell id=&quot;u_bbBp1pnYFl_PV7gy-b-9&quot; value=&quot;&quot; style=&quot;shape=flexArrow;endArrow=classic;html=1;rounded=0;endSize=7;startSize=6;fillColor=#fff2cc;strokeColor=#d6b656;&quot; edge=&quot;1&quot; parent=&quot;1&quot;&gt;&#xA;          &lt;mxGeometry width=&quot;50&quot; height=&quot;50&quot; relative=&quot;1&quot; as=&quot;geometry&quot;&gt;&#xA;            &lt;mxPoint x=&quot;340&quot; y=&quot;255&quot; as=&quot;sourcePoint&quot; /&gt;&#xA;            &lt;mxPoint x=&quot;500&quot; y=&quot;255&quot; as=&quot;targetPoint&quot; /&gt;&#xA;          &lt;/mxGeometry&gt;&#xA;        &lt;/mxCell&gt;&#xA;        &lt;mxCell id=&quot;u_bbBp1pnYFl_PV7gy-b-10&quot; value=&quot;&quot; style=&quot;shape=flexArrow;endArrow=classic;html=1;rounded=0;endSize=7;startSize=6;fillColor=#fff2cc;strokeColor=#d6b656;&quot; edge=&quot;1&quot; parent=&quot;1&quot;&gt;&#xA;          &lt;mxGeometry width=&quot;50&quot; height=&quot;50&quot; relative=&quot;1&quot; as=&quot;geometry&quot;&gt;&#xA;            &lt;mxPoint x=&quot;490&quot; y=&quot;285&quot; as=&quot;sourcePoint&quot; /&gt;&#xA;            &lt;mxPoint x=&quot;340&quot; y=&quot;285&quot; as=&quot;targetPoint&quot; /&gt;&#xA;          &lt;/mxGeometry&gt;&#xA;        &lt;/mxCell&gt;&#xA;        &lt;mxCell id=&quot;u_bbBp1pnYFl_PV7gy-b-11&quot; value=&quot;&quot; style=&quot;shape=flexArrow;endArrow=classic;html=1;rounded=0;endSize=7;startSize=6;fillColor=#fff2cc;strokeColor=#d6b656;&quot; edge=&quot;1&quot; parent=&quot;1&quot;&gt;&#xA;          &lt;mxGeometry width=&quot;50&quot; height=&quot;50&quot; relative=&quot;1&quot; as=&quot;geometry&quot;&gt;&#xA;            &lt;mxPoint x=&quot;560&quot; y=&quot;320&quot; as=&quot;sourcePoint&quot; /&gt;&#xA;            &lt;mxPoint x=&quot;490&quot; y=&quot;370&quot; as=&quot;targetPoint&quot; /&gt;&#xA;          &lt;/mxGeometry&gt;&#xA;        &lt;/mxCell&gt;&#xA;        &lt;mxCell id=&quot;u_bbBp1pnYFl_PV7gy-b-12&quot; value=&quot;&quot; style=&quot;shape=flexArrow;endArrow=classic;html=1;rounded=0;endSize=7;startSize=6;fillColor=#fff2cc;strokeColor=#d6b656;&quot; edge=&quot;1&quot; parent=&quot;1&quot;&gt;&#xA;          &lt;mxGeometry width=&quot;50&quot; height=&quot;50&quot; relative=&quot;1&quot; as=&quot;geometry&quot;&gt;&#xA;            &lt;mxPoint x=&quot;350&quot; y=&quot;370&quot; as=&quot;sourcePoint&quot; /&gt;&#xA;            &lt;mxPoint x=&quot;280&quot; y=&quot;320&quot; as=&quot;targetPoint&quot; /&gt;&#xA;          &lt;/mxGeometry&gt;&#xA;        &lt;/mxCell&gt;&#xA;        &lt;mxCell id=&quot;u_bbBp1pnYFl_PV7gy-b-14&quot; value=&quot;&quot; style=&quot;shape=flexArrow;endArrow=classic;html=1;rounded=0;exitX=1;exitY=0;exitDx=0;exitDy=0;entryX=0;entryY=1;entryDx=0;entryDy=0;endSize=7;startSize=6;fillColor=#fff2cc;strokeColor=#d6b656;&quot; edge=&quot;1&quot; parent=&quot;1&quot; source=&quot;u_bbBp1pnYFl_PV7gy-b-3&quot;&gt;&#xA;          &lt;mxGeometry width=&quot;50&quot; height=&quot;50&quot; relative=&quot;1&quot; as=&quot;geometry&quot;&gt;&#xA;            &lt;mxPoint x=&quot;460&quot; y=&quot;400&quot; as=&quot;sourcePoint&quot; /&gt;&#xA;            &lt;mxPoint x=&quot;680&quot; y=&quot;200&quot; as=&quot;targetPoint&quot; /&gt;&#xA;          &lt;/mxGeometry&gt;&#xA;        &lt;/mxCell&gt;&#xA;        &lt;mxCell id=&quot;u_bbBp1pnYFl_PV7gy-b-15&quot; value=&quot;&amp;lt;div style=&amp;quot;font-size: 22px;&amp;quot;&amp;gt;Création&amp;lt;/div&amp;gt;&quot; style=&quot;text;html=1;align=center;verticalAlign=middle;whiteSpace=wrap;rounded=0;fontSize=22;fontFamily=Courier New;&quot; vertex=&quot;1&quot; parent=&quot;1&quot;&gt;&#xA;          &lt;mxGeometry x=&quot;100&quot; y=&quot;170&quot; width=&quot;60&quot; height=&quot;30&quot; as=&quot;geometry&quot; /&gt;&#xA;        &lt;/mxCell&gt;&#xA;        &lt;mxCell id=&quot;u_bbBp1pnYFl_PV7gy-b-16&quot; value=&quot;Terminé&quot; style=&quot;text;html=1;align=center;verticalAlign=middle;whiteSpace=wrap;rounded=0;fontSize=22;fontFamily=Courier New;&quot; vertex=&quot;1&quot; parent=&quot;1&quot;&gt;&#xA;          &lt;mxGeometry x=&quot;680&quot; y=&quot;170&quot; width=&quot;60&quot; height=&quot;30&quot; as=&quot;geometry&quot; /&gt;&#xA;        &lt;/mxCell&gt;&#xA;        &lt;mxCell id=&quot;u_bbBp1pnYFl_PV7gy-b-17&quot; value=&quot;&amp;lt;div&amp;gt;élection par&amp;lt;/div&amp;gt;&amp;lt;div&amp;gt;l&amp;#39;ordonnanceur&amp;lt;/div&amp;gt;&quot; style=&quot;text;html=1;align=center;verticalAlign=middle;whiteSpace=wrap;rounded=0;fontSize=13;spacingTop=2;&quot; vertex=&quot;1&quot; parent=&quot;1&quot;&gt;&#xA;          &lt;mxGeometry x=&quot;334&quot; y=&quot;216&quot; width=&quot;160&quot; height=&quot;30&quot; as=&quot;geometry&quot; /&gt;&#xA;        &lt;/mxCell&gt;&#xA;        &lt;mxCell id=&quot;u_bbBp1pnYFl_PV7gy-b-18&quot; value=&quot;interruption&quot; style=&quot;text;html=1;align=center;verticalAlign=middle;whiteSpace=wrap;rounded=0;fontSize=13;&quot; vertex=&quot;1&quot; parent=&quot;1&quot;&gt;&#xA;          &lt;mxGeometry x=&quot;340&quot; y=&quot;291&quot; width=&quot;160&quot; height=&quot;30&quot; as=&quot;geometry&quot; /&gt;&#xA;        &lt;/mxCell&gt;&#xA;        &lt;mxCell id=&quot;u_bbBp1pnYFl_PV7gy-b-19&quot; value=&quot;&amp;lt;div align=&amp;quot;left&amp;quot; style=&amp;quot;font-size: 13px;&amp;quot;&amp;gt;blocage&amp;lt;/div&amp;gt;&quot; style=&quot;text;html=1;align=left;verticalAlign=middle;whiteSpace=wrap;rounded=0;fontSize=13;&quot; vertex=&quot;1&quot; parent=&quot;1&quot;&gt;&#xA;          &lt;mxGeometry x=&quot;540&quot; y=&quot;340&quot; width=&quot;70&quot; height=&quot;30&quot; as=&quot;geometry&quot; /&gt;&#xA;        &lt;/mxCell&gt;&#xA;        &lt;mxCell id=&quot;u_bbBp1pnYFl_PV7gy-b-20&quot; value=&quot;&amp;lt;div align=&amp;quot;right&amp;quot; style=&amp;quot;font-size: 13px;&amp;quot;&amp;gt;déblocage&amp;lt;/div&amp;gt;&quot; style=&quot;text;html=1;align=right;verticalAlign=middle;whiteSpace=wrap;rounded=0;fontSize=13;&quot; vertex=&quot;1&quot; parent=&quot;1&quot;&gt;&#xA;          &lt;mxGeometry x=&quot;250&quot; y=&quot;350&quot; width=&quot;70&quot; height=&quot;30&quot; as=&quot;geometry&quot; /&gt;&#xA;        &lt;/mxCell&gt;&#xA;      &lt;/root&gt;&#xA;    &lt;/mxGraphModel&gt;&#xA;  &lt;/diagram&gt;&#xA;&lt;/mxfile&gt;&#xA;"><defs/><g><g><rect x="443" y="70" width="120" height="60" rx="9" ry="9" fill="#dae8fc" stroke="#6c8ebf" stroke-width="3" pointer-events="all"/></g><g><g transform="translate(-0.5 -0.5)"><switch><foreignObject style="overflow: visible; text-align: left;" pointer-events="none" width="100%" height="100%" requiredFeatures="http://www.w3.org/TR/SVG11/feature#Extensibility"><div xmlns="http://www.w3.org/1999/xhtml" style="display: flex; align-items: unsafe center; justify-content: unsafe center; width: 118px; height: 1px; padding-top: 100px; margin-left: 444px;"><div style="box-sizing: border-box; font-size: 0px; text-align: center;" data-drawio-colors="color: rgb(0, 0, 0); "><div style="display: inline-block; font-size: 22px; font-family: Courier New; color: rgb(0, 0, 0); line-height: 1.2; pointer-events: all; white-space: normal; overflow-wrap: normal;">Elu</div></div></div></foreignObject><text x="503" y="107" fill="rgb(0, 0, 0)" font-family="Courier New" font-size="22px" text-anchor="middle">Elu</text></switch></g></g><g><rect x="123" y="70" width="120" height="60" rx="9" ry="9" fill="#dae8fc" stroke="#6c8ebf" stroke-width="3" pointer-events="all"/></g><g><g transform="translate(-0.5 -0.5)"><switch><foreignObject style="overflow: visible; text-align: left;" pointer-events="none" width="100%" height="100%" requiredFeatures="http://www.w3.org/TR/SVG11/feature#Extensibility"><div xmlns="http://www.w3.org/1999/xhtml" style="display: flex; align-items: unsafe center; justify-content: unsafe center; width: 118px; height: 1px; padding-top: 100px; margin-left: 124px;"><div style="box-sizing: border-box; font-size: 0px; text-align: center;" data-drawio-colors="color: rgb(0, 0, 0); "><div style="display: inline-block; font-size: 22px; font-family: Courier New; color: rgb(0, 0, 0); line-height: 1.2; pointer-events: all; white-space: normal; overflow-wrap: normal;">Prêt</div></div></div></foreignObject><text x="183" y="107" fill="rgb(0, 0, 0)" font-family="Courier New" font-size="22px" text-anchor="middle">Prêt</text></switch></g></g><g><rect x="283" y="210" width="120" height="60" rx="9" ry="9" fill="#dae8fc" stroke="#6c8ebf" stroke-width="3" pointer-events="all"/></g><g><g transform="translate(-0.5 -0.5)"><switch><foreignObject style="overflow: visible; text-align: left;" pointer-events="none" width="100%" height="100%" requiredFeatures="http://www.w3.org/TR/SVG11/feature#Extensibility"><div xmlns="http://www.w3.org/1999/xhtml" style="display: flex; align-items: unsafe center; justify-content: unsafe center; width: 118px; height: 1px; padding-top: 240px; margin-left: 284px;"><div style="box-sizing: border-box; font-size: 0px; text-align: center;" data-drawio-colors="color: rgb(0, 0, 0); "><div style="display: inline-block; font-size: 22px; font-family: Courier New; color: rgb(0, 0, 0); line-height: 1.2; pointer-events: all; white-space: normal; overflow-wrap: normal;">Bloqué</div></div></div></foreignObject><text x="343" y="247" fill="rgb(0, 0, 0)" font-family="Courier New" font-size="22px" text-anchor="middle">Bloqué</text></switch></g></g><g><path d="M 79.82 33.89 L 86.89 26.82 L 110.63 50.55 L 118.05 43.13 L 122.65 69.65 L 96.13 65.05 L 103.55 57.63 Z" fill="#fff2cc" stroke="#d6b656" stroke-miterlimit="10" pointer-events="all"/></g><g><path d="M 263.5 90 L 263.5 80 L 400.5 80 L 400.5 69.5 L 422.5 85 L 400.5 100.5 L 400.5 90 Z" fill="#fff2cc" stroke="#d6b656" stroke-miterlimit="10" pointer-events="all"/></g><g><path d="M 412.5 110 L 412.5 120 L 285.5 120 L 285.5 130.5 L 263.5 115 L 285.5 99.5 L 285.5 110 Z" fill="#fff2cc" stroke="#d6b656" stroke-miterlimit="10" pointer-events="all"/></g><g><path d="M 479.69 146.22 L 485.5 154.36 L 434.22 190.99 L 440.32 199.54 L 413.41 199.71 L 422.3 174.31 L 428.4 182.85 Z" fill="#fff2cc" stroke="#d6b656" stroke-miterlimit="10" pointer-events="all"/></g><g><path d="M 275.5 195.64 L 269.69 203.78 L 218.4 167.15 L 212.3 175.69 L 203.41 150.29 L 230.32 150.46 L 224.22 159.01 Z" fill="#fff2cc" stroke="#d6b656" stroke-miterlimit="10" pointer-events="all"/></g><g><path d="M 566.89 73.18 L 559.82 66.11 L 583.55 42.37 L 576.13 34.95 L 602.65 30.35 L 598.05 56.87 L 590.63 49.45 Z" fill="#fff2cc" stroke="#d6b656" stroke-miterlimit="10" pointer-events="all"/></g><g><rect x="23" y="0" width="60" height="30" fill="none" stroke="none" pointer-events="all"/></g><g><g transform="translate(-0.5 -0.5)"><switch><foreignObject style="overflow: visible; text-align: left;" pointer-events="none" width="100%" height="100%" requiredFeatures="http://www.w3.org/TR/SVG11/feature#Extensibility"><div xmlns="http://www.w3.org/1999/xhtml" style="display: flex; align-items: unsafe center; justify-content: unsafe center; width: 58px; height: 1px; padding-top: 15px; margin-left: 24px;"><div style="box-sizing: border-box; font-size: 0px; text-align: center;" data-drawio-colors="color: rgb(0, 0, 0); "><div style="display: inline-block; font-size: 22px; font-family: Courier New; color: rgb(0, 0, 0); line-height: 1.2; pointer-events: all; white-space: normal; overflow-wrap: normal;"><div style="font-size: 22px;">Création</div></div></div></div></foreignObject><text x="53" y="22" fill="rgb(0, 0, 0)" font-family="Courier New" font-size="22px" text-anchor="middle">Créati...</text></switch></g></g><g><rect x="603" y="0" width="60" height="30" fill="none" stroke="none" pointer-events="all"/></g><g><g transform="translate(-0.5 -0.5)"><switch><foreignObject style="overflow: visible; text-align: left;" pointer-events="none" width="100%" height="100%" requiredFeatures="http://www.w3.org/TR/SVG11/feature#Extensibility"><div xmlns="http://www.w3.org/1999/xhtml" style="display: flex; align-items: unsafe center; justify-content: unsafe center; width: 58px; height: 1px; padding-top: 15px; margin-left: 604px;"><div style="box-sizing: border-box; font-size: 0px; text-align: center;" data-drawio-colors="color: rgb(0, 0, 0); "><div style="display: inline-block; font-size: 22px; font-family: Courier New; color: rgb(0, 0, 0); line-height: 1.2; pointer-events: all; white-space: normal; overflow-wrap: normal;">Terminé</div></div></div></foreignObject><text x="633" y="22" fill="rgb(0, 0, 0)" font-family="Courier New" font-size="22px" text-anchor="middle">Terminé</text></switch></g></g><g><rect x="257" y="46" width="160" height="30" fill="none" stroke="none" pointer-events="all"/></g><g><g transform="translate(-0.5 -0.5)"><switch><foreignObject style="overflow: visible; text-align: left;" pointer-events="none" width="100%" height="100%" requiredFeatures="http://www.w3.org/TR/SVG11/feature#Extensibility"><div xmlns="http://www.w3.org/1999/xhtml" style="display: flex; align-items: unsafe center; justify-content: unsafe center; width: 158px; height: 1px; padding-top: 62px; margin-left: 258px;"><div style="box-sizing: border-box; font-size: 0px; text-align: center;" data-drawio-colors="color: rgb(0, 0, 0); "><div style="display: inline-block; font-size: 13px; font-family: Helvetica; color: rgb(0, 0, 0); line-height: 1.2; pointer-events: all; white-space: normal; overflow-wrap: normal;"><div>élection par</div><div>l'ordonnanceur</div></div></div></div></foreignObject><text x="337" y="66" fill="rgb(0, 0, 0)" font-family="Helvetica" font-size="13px" text-anchor="middle">élection par...</text></switch></g></g><g><rect x="263" y="121" width="160" height="30" fill="none" stroke="none" pointer-events="all"/></g><g><g transform="translate(-0.5 -0.5)"><switch><foreignObject style="overflow: visible; text-align: left;" pointer-events="none" width="100%" height="100%" requiredFeatures="http://www.w3.org/TR/SVG11/feature#Extensibility"><div xmlns="http://www.w3.org/1999/xhtml" style="display: flex; align-items: unsafe center; justify-content: unsafe center; width: 158px; height: 1px; padding-top: 136px; margin-left: 264px;"><div style="box-sizing: border-box; font-size: 0px; text-align: center;" data-drawio-colors="color: rgb(0, 0, 0); "><div style="display: inline-block; font-size: 13px; font-family: Helvetica; color: rgb(0, 0, 0); line-height: 1.2; pointer-events: all; white-space: normal; overflow-wrap: normal;">interruption</div></div></div></foreignObject><text x="343" y="140" fill="rgb(0, 0, 0)" font-family="Helvetica" font-size="13px" text-anchor="middle">interruption</text></switch></g></g><g><rect x="463" y="170" width="70" height="30" fill="none" stroke="none" pointer-events="all"/></g><g><g transform="translate(-0.5 -0.5)"><switch><foreignObject style="overflow: visible; text-align: left;" pointer-events="none" width="100%" height="100%" requiredFeatures="http://www.w3.org/TR/SVG11/feature#Extensibility"><div xmlns="http://www.w3.org/1999/xhtml" style="display: flex; align-items: unsafe center; justify-content: unsafe flex-start; width: 68px; height: 1px; padding-top: 185px; margin-left: 465px;"><div style="box-sizing: border-box; font-size: 0px; text-align: left;" data-drawio-colors="color: rgb(0, 0, 0); "><div style="display: inline-block; font-size: 13px; font-family: Helvetica; color: rgb(0, 0, 0); line-height: 1.2; pointer-events: all; white-space: normal; overflow-wrap: normal;"><div style="font-size: 13px;" align="left">blocage</div></div></div></div></foreignObject><text x="465" y="189" fill="rgb(0, 0, 0)" font-family="Helvetica" font-size="13px">blocage</text></switch></g></g><g><rect x="173" y="180" width="70" height="30" fill="none" stroke="none" pointer-events="all"/></g><g><g transform="translate(-0.5 -0.5)"><switch><foreignObject style="overflow: visible; text-align: left;" pointer-events="none" width="100%" height="100%" requiredFeatures="http://www.w3.org/TR/SVG11/feature#Extensibility"><div xmlns="http://www.w3.org/1999/xhtml" style="display: flex; align-items: unsafe center; justify-content: unsafe flex-end; width: 68px; height: 1px; padding-top: 195px; margin-left: 173px;"><div style="box-sizing: border-box; font-size: 0px; text-align: right;" data-drawio-colors="color: rgb(0, 0, 0); "><div style="display: inline-block; font-size: 13px; font-family: Helvetica; color: rgb(0, 0, 0); line-height: 1.2; pointer-events: all; white-space: normal; overflow-wrap: normal;"><div style="font-size: 13px;" align="right">déblocage</div></div></div></div></foreignObject><text x="241" y="199" fill="rgb(0, 0, 0)" font-family="Helvetica" font-size="13px" text-anchor="end">déblocage</text></switch></g></g></g><switch><g requiredFeatures="http://www.w3.org/TR/SVG11/feature#Extensibility"/><a transform="translate(0,-5)" xlink:href="https://www.drawio.com/doc/faq/svg-export-text-problems" target="_blank"><text text-anchor="middle" font-size="10px" x="50%" y="100%">Text is not SVG - cannot display</text></a></switch></svg>